Tan Gandhara – How to pivot datasets
…
Now, let’s say we want to everything apart from the index column to be reshaped into a longer tibble where the p labels are in a column called class and the actual observations for each row are in a column called values. Using the pivot_longer() function we could do something like this were we select everything apart from index and column names are assigned using the names_to argument and values using values_to:

df |> 
  pivot_longer(!index, 
               names_to = "class", 
               values_to = "value")

# A tibble: 30 × 3
   index class value
   <int> <chr> <dbl>
 1     1 p1    39.0 
 2     1 p2    33.9 
 3     1 p3    82.3 
 4     2 p1    16.6 
 5     2 p2     9.25
 6     2 p3    86.8 
 7     3 p1    28.3 
 8     3 p2     7.09
 9     3 p3    25.8 
10     4 p1     6.15
# ℹ 20 more rows
…
